module codestrategic.com/ppgp

go 1.17

require (
	github.com/fvbock/endless v0.0.0-20170109170031-447134032cb6
	github.com/gin-contrib/multitemplate v0.0.0-20211002122701-e9e3201b87a0
	github.com/gin-contrib/sessions v0.0.4
	github.com/gin-gonic/gin v1.7.7
	github.com/golang-jwt/jwt v3.2.2+incompatible
	github.com/jinzhu/gorm v1.9.16
	github.com/jordan-wright/email v4.0.1-0.20210109023952-943e75fe5223+incompatible
	github.com/pquerna/otp v1.3.0
	github.com/spf13/viper v1.9.0
	github.com/stretchr/testify v1.7.0
	golang.org/x/crypto v0.0.0-20210921155107-089bfa567519
	gorm.io/datatypes v1.0.3
	gorm.io/driver/mysql v1.1.3
	gorm.io/driver/sqlite v1.2.3
	gorm.io/gorm v1.22.2
)

require (
	github.com/boj/redistore v0.0.0-20180917114910-cd5dcc76aeff // indirect
	github.com/boombuler/barcode v1.0.1 // indirect
	github.com/davecgh/go-spew v1.1.1 // indirect
	github.com/fsnotify/fsnotify v1.5.1 // indirect
	github.com/gin-contrib/sse v0.1.0 // indirect
	github.com/go-playground/locales v0.13.0 // indirect
	github.com/go-playground/universal-translator v0.17.0 // indirect
	github.com/go-playground/validator/v10 v10.4.1 // indirect
	github.com/go-sql-driver/mysql v1.6.0 // indirect
	github.com/golang/protobuf v1.5.2 // indirect
	github.com/gomodule/redigo v2.0.0+incompatible // indirect
	github.com/gorilla/context v1.1.1 // indirect
	github.com/gorilla/securecookie v1.1.1 // indirect
	github.com/gorilla/sessions v1.2.0 // indirect
	github.com/hashicorp/hcl v1.0.0 // indirect
	github.com/jinzhu/inflection v1.0.0 // indirect
	github.com/jinzhu/now v1.1.2 // indirect
	github.com/json-iterator/go v1.1.11 // indirect
	github.com/leodido/go-urn v1.2.0 // indirect
	github.com/magiconair/properties v1.8.5 // indirect
	github.com/mattn/go-isatty v0.0.12 // indirect
	github.com/mattn/go-sqlite3 v1.14.9 // indirect
	github.com/mitchellh/mapstructure v1.4.2 // indirect
	github.com/modern-go/concurrent v0.0.0-20180228061459-e0a39a4cb421 // indirect
	github.com/modern-go/reflect2 v1.0.1 // indirect
	github.com/pelletier/go-toml v1.9.4 // indirect
	github.com/pmezard/go-difflib v1.0.0 // indirect
	github.com/spf13/afero v1.6.0 // indirect
	github.com/spf13/cast v1.4.1 // indirect
	github.com/spf13/jwalterweatherman v1.1.0 // indirect
	github.com/spf13/pflag v1.0.5 // indirect
	github.com/subosito/gotenv v1.2.0 // indirect
	github.com/ugorji/go/codec v1.1.7 // indirect
	golang.org/x/sys v0.0.0-20210823070655-63515b42dcdf // indirect
	golang.org/x/text v0.3.7 // indirect
	google.golang.org/protobuf v1.27.1 // indirect
	gopkg.in/ini.v1 v1.63.2 // indirect
	gopkg.in/yaml.v2 v2.4.0 // indirect
	gopkg.in/yaml.v3 v3.0.0-20210107192922-496545a6307b // indirect
)
